%YAML 1.1
%TAG !u! tag:unity3d.com,2011:
--- !u!74 &7400000
AnimationClip:
  m_ObjectHideFlags: 0
  m_PrefabParentObject: {fileID: 0}
  m_PrefabInternal: {fileID: 0}
  m_Name: Idle
  serializedVersion: 6
  m_Legacy: 0
  m_Compressed: 0
  m_UseHighQualityCurve: 1
  m_RotationCurves: []
  m_CompressedRotationCurves: []
  m_EulerCurves: []
  m_PositionCurves: []
  m_ScaleCurves: []
  m_FloatCurves: []
  m_PPtrCurves:
  - curve:
    - time: 0
      value: {fileID: 21300000, guid: f49e7f9652833c54aa5f4fa3aa76d546, type: 3}
    - time: 0.1
      value: {fileID: 21300000, guid: 2569841bdc0397640918296daa6da86d, type: 3}
    - time: 0.21666667
      value: {fileID: 21300000, guid: 1f8de168244bf834d9858b5ad20f88c0, type: 3}
    - time: 0.31666666
      value: {fileID: 21300000, guid: 1acfdaf9b4cf25642a4cc6371cc910f8, type: 3}
    - time: 0.41666666
      value: {fileID: 21300000, guid: b05f3ea2f3af01743bf224928364b063, type: 3}
    - time: 0.5
      value: {fileID: 21300000, guid: c3901d4619920794eb6b85ac3ec91599, type: 3}
    - time: 0.6
      value: {fileID: 21300000, guid: 166e9fece485c3944877cbf9adab448b, type: 3}
    - time: 0.7
      value: {fileID: 21300000, guid: ce9cc7224854c314c99a05822ea89aa5, type: 3}
    - time: 0.81666666
      value: {fileID: 21300000, guid: fd0f279cba4c9434287f0cb0fc6f87a5, type: 3}
    - time: 0.9166667
      value: {fileID: 21300000, guid: 838f582ff475e8f43a28399b6b3d9a81, type: 3}
    attribute: m_Sprite
    path: 
    classID: 212
    script: {fileID: 0}
  m_SampleRate: 60
  m_WrapMode: 0
  m_Bounds:
    m_Center: {x: 0, y: 0, z: 0}
    m_Extent: {x: 0, y: 0, z: 0}
  m_ClipBindingConstant:
    genericBindings:
    - serializedVersion: 2
      path: 0
      attribute: 0
      script: {fileID: 0}
      typeID: 212
      customType: 23
      isPPtrCurve: 1
    pptrCurveMapping:
    - {fileID: 21300000, guid: f49e7f9652833c54aa5f4fa3aa76d546, type: 3}
    - {fileID: 21300000, guid: 2569841bdc0397640918296daa6da86d, type: 3}
    - {fileID: 21300000, guid: 1f8de168244bf834d9858b5ad20f88c0, type: 3}
    - {fileID: 21300000, guid: 1acfdaf9b4cf25642a4cc6371cc910f8, type: 3}
    - {fileID: 21300000, guid: b05f3ea2f3af01743bf224928364b063, type: 3}
    - {fileID: 21300000, guid: c3901d4619920794eb6b85ac3ec91599, type: 3}
    - {fileID: 21300000, guid: 166e9fece485c3944877cbf9adab448b, type: 3}
    - {fileID: 21300000, guid: ce9cc7224854c314c99a05822ea89aa5, type: 3}
    - {fileID: 21300000, guid: fd0f279cba4c9434287f0cb0fc6f87a5, type: 3}
    - {fileID: 21300000, guid: 838f582ff475e8f43a28399b6b3d9a81, type: 3}
  m_AnimationClipSettings:
    serializedVersion: 2
    m_AdditiveReferencePoseClip: {fileID: 0}
    m_AdditiveReferencePoseTime: 0
    m_StartTime: 0
    m_StopTime: 0.93333334
    m_OrientationOffsetY: 0
    m_Level: 0
    m_CycleOffset: 0
    m_HasAdditiveReferencePose: 0
    m_LoopTime: 1
    m_LoopBlend: 0
    m_LoopBlendOrientation: 0
    m_LoopBlendPositionY: 0
    m_LoopBlendPositionXZ: 0
    m_KeepOriginalOrientation: 0
    m_KeepOriginalPositionY: 1
    m_KeepOriginalPositionXZ: 0
    m_HeightFromFeet: 0
    m_Mirror: 0
  m_EditorCurves: []
  m_EulerEditorCurves: []
  m_HasGenericRootTransform: 0
  m_HasMotionFloatCurves: 0
  m_GenerateMotionCurves: 0
  m_Events: []
